SinoatrialNode,v_i_0,SinoatrialNode,voo
SinoatrialNode,v_i_1,SA_BB,cell2_v_replay
SinoatrialNode,v_i_2,SA_OS,cell2_v_replay
SinoatrialNode,v_i_3,SA_RA,cell2_v_replay
SinoatrialNode,v_i_4,SA_CT,cell2_v_replay
BachmannBundle,v_i_0,SA_BB,cell1_v_replay
BachmannBundle,v_i_1,BB_LA,cell2_v_replay
LeftAtrium,v_i_0,BB_LA,cell1_v_replay
LeftAtrium,v_i_1,LA_LA1,cell2_v_replay
LeftAtrium1,v_i_0,LA_LA1,cell1_v_replay
RightAtrium,v_i_0,SA_RA,cell1_v_replay
RightAtrium,v_i_1,RA_RA1,cell2_v_replay
RightAtrium,v_i_2,RightAtrium,voo
RightAtrium1,v_i_0,RA_RA1,cell1_v_replay
RightAtrium1,v_i_1,RA1_CS,cell2_v_replay
CoronarySinus,v_i_0,RA1_CS,cell1_v_replay
CristaTerminalis,v_i_0,SA_CT,cell1_v_replay
CristaTerminalis,v_i_1,CT_CT1,cell2_v_replay
CristaTerminalis1,v_i_0,CT_CT1,cell1_v_replay
Ostium,v_i_0,SA_OS,cell1_v_replay
Ostium,v_i_1,OS_Slow,cell2_v_replay
Ostium,v_i_2,OS_Fast,cell2_v_replay
Fast,v_i_0,OS_Fast,cell1_v_replay
Fast,v_i_1,Fast_Fast1,cell2_v_replay
Fast1,v_i_0,Fast_Fast1,cell1_v_replay
Fast1,v_i_1,Fast1_AV,cell2_v_replay
Slow,v_i_0,OS_Slow,cell1_v_replay
Slow,v_i_1,Slow_Slow1,cell2_v_replay
Slow1,v_i_0,Slow_Slow1,cell1_v_replay
Slow1,v_i_1,Slow1_AV,cell2_v_replay
AtrioventricularNode,v_i_0,Slow1_AV,cell1_v_replay
AtrioventricularNode,v_i_1,Fast1_AV,cell1_v_replay
AtrioventricularNode,v_i_2,AV_His,cell2_v_replay
BundleOfHis,v_i_0,AV_His,cell1_v_replay
BundleOfHis,v_i_1,His_His1,cell2_v_replay
BundleOfHis1,v_i_0,His_His1,cell1_v_replay
BundleOfHis1,v_i_1,His1_His2,cell2_v_replay
BundleOfHis2,v_i_0,His1_His2,cell1_v_replay
BundleOfHis2,v_i_1,His2_LBB,cell2_v_replay
BundleOfHis2,v_i_2,His2_RBB,cell2_v_replay
LeftBundleBranch,v_i_0,His2_LBB,cell1_v_replay
LeftBundleBranch,v_i_1,LBB_LBB1,cell2_v_replay
LeftBundleBranch1,v_i_0,LBB_LBB1,cell1_v_replay
LeftBundleBranch1,v_i_1,LBB1_LVA,cell2_v_replay
LeftVentricularApex,v_i_0,LVA_RVA,cell2_v_replay
LeftVentricularApex,v_i_1,LBB1_LVA,cell1_v_replay
LeftVentricularApex,v_i_2,LVA_LV,cell2_v_replay
LeftVentricularApex,v_i_3,LVA_LVS,cell2_v_replay
RightBundleBranch,v_i_0,His2_RBB,cell1_v_replay
RightBundleBranch,v_i_1,RBB_RBB1,cell2_v_replay
RightBundleBranch1,v_i_0,RBB_RBB1,cell1_v_replay
RightBundleBranch1,v_i_1,RBB1_RVA,cell2_v_replay
RightVentricularApex,v_i_0,RBB1_RVA,cell1_v_replay
RightVentricularApex,v_i_1,RVA_RV,cell2_v_replay
RightVentricularApex,v_i_2,RVA_RVS,cell2_v_replay
RightVentricularApex,v_i_3,LVA_RVA,cell1_v_replay
LeftVentricle,v_i_0,LVA_LV,cell1_v_replay
LeftVentricle,v_i_1,LV_LV1,cell2_v_replay
LeftVentricle1,v_i_0,LV_LV1,cell1_v_replay
LeftVentricularSeptum,v_i_0,LVA_LVS,cell1_v_replay
LeftVentricularSeptum,v_i_1,LVS_LVS1,cell2_v_replay
LeftVentricularSeptum1,v_i_0,LVS_LVS1,cell1_v_replay
LeftVentricularSeptum1,v_i_1,LVS1_CSLV,cell2_v_replay
CSLeftVentricular,v_i_0,LVS1_CSLV,cell1_v_replay
RightVentricle,v_i_0,RVA_RV,cell1_v_replay
RightVentricle,v_i_1,RV_RV1,cell2_v_replay
RightVentricle,v_i_2,RightVentricle,voo
RightVentricle1,v_i_0,RV_RV1,cell1_v_replay
RightVentricularSeptum,v_i_0,RVA_RVS,cell1_v_replay
RightVentricularSeptum,v_i_1,RVS_RVS1,cell2_v_replay
RightVentricularSeptum1,v_i_0,RVS_RVS1,cell1_v_replay