Name,cell1_conduction_time,cell2_conduction_time,cell1_charge_time,cell2_charge_time,ss,inst
SA_BB,0.02,0.02,0.01,0.01,0.001,0
SA_OS,0.02,0.02,0.01,0.01,0.001,1
SA_RA,0.02,0.02,0.01,0.01,0.001,2
SA_CT,0.02,0.02,0.01,0.01,0.001,3
BB_LA,0.03,0.03,0.01,0.01,0.001,4
LA_LA1,0.04,0.04,0.01,0.01,0.001,5
RA_RA1,0.02,0.02,0.01,0.01,0.001,6
RA1_CS,0.02,0.02,0.01,0.01,0.001,7
CT_CT1,0.02,0.02,0.01,0.01,0.001,8
OS_Fast,0.02,0.02,0.01,0.01,0.001,9
Fast_Fast1,0.02,0.02,0.01,0.01,0.001,10
OS_Slow,0.03,0.03,0.01,0.01,0.001,11
Slow_Slow1,0.03,0.03,0.01,0.01,0.001,12
Fast1_AV,0.01,0.01,0.01,0.01,0.001,13
Slow1_AV,0.015,0.015,0.01,0.01,0.001,14
AV_His,0.03,0.03,0.01,0.01,0.001,15
His_His1,0.02,0.02,0.01,0.01,0.001,16
His1_His2,0.02,0.02,0.01,0.01,0.001,17
His2_LBB,0.02,0.02,0.01,0.01,0.001,18
LBB_LBB1,0.005,0.005,0.01,0.01,0.001,19
LBB1_LVA,0.005,0.005,0.01,0.01,0.001,20
His2_RBB,0.02,0.02,0.01,0.01,0.001,21
RBB_RBB1,0.005,0.005,0.01,0.01,0.001,22
RBB1_RVA,0.005,0.005,0.01,0.01,0.001,23
LVA_RVA,0.005,0.005,0.01,0.01,0.001,24
LVA_LV,0.02,0.02,0.01,0.01,0.001,25
LV_LV1,0.03,0.03,0.01,0.01,0.001,26
LVA_LVS,0.015,0.015,0.01,0.01,0.001,27
LVS_LVS1,0.015,0.015,0.01,0.01,0.001,28
LVS1_CSLV,0.02,0.02,0.01,0.01,0.001,29
RVA_RV,0.01,0.01,0.01,0.01,0.001,30
RV_RV1,0.02,0.02,0.01,0.01,0.001,31
RVA_RVS,0.015,0.015,0.01,0.01,0.001,32
RVS_RVS1,0.02,0.02,0.01,0.01,0.001,33